{
    "accounts": [
        {
            "id": 7,
            "name": "Dell",
            "email": null,
            "admin": 0,
            "createdAt": "2024-03-27T17:16:41.000+00:00",
            "updatedAt": "2024-03-27T17:16:41.000+00:00",
            "deletedAt": null,
            "imageUrl": "hhttps://upload.wikimedia.org/wikipedia/commons/thumb/4/48/Dell_Logo.svg/2048px-Dell_Logo.svg.png",
            "vatNumber": "BE0473129141",
            "country": "BE",
            "zipcode": "78682",
            "street": "One Dell Way",
            "streetNr": null,
            "city": "Round Rock",
            "sector": "Technology",
            "firstname": null,
            "lastname": null
        },
        {
            "id": 6,
            "name": "Barco",
            "email": null,
            "admin": 0,
            "createdAt": "2024-03-27T17:16:40.000+00:00",
            "updatedAt": "2024-03-27T17:16:40.000+00:00",
            "deletedAt": null,
            "imageUrl": "https://assets.barco.com/transform/618c2441-7bad-48cf-97e1-dbc2c07e825a/barco-web-logo",
            "vatNumber": "BE0473191041",
            "country": "BE",
            "zipcode": "8500",
            "street": "President Kennedypark",
            "streetNr": null,
            "city": null,
            "sector": "Technology",
            "firstname": null,
            "lastname": null
        },
        {
            "id": 5,
            "name": "Boeing",
            "email": null,
            "admin": 0,
            "createdAt": "2024-03-27T17:16:40.000+00:00",
            "updatedAt": "2024-03-27T17:16:40.000+00:00",
            "deletedAt": null,
            "imageUrl": "https://live.staticflickr.com/7277/7651088336_1c8cf7d664_w.jpg",
            "vatNumber": "BE09876543",
            "country": "US",
            "zipcode": "20301",
            "street": " Long Bridge Drive 929",
            "streetNr": null,
            "city": null,
            "sector": "Aerospace",
            "firstname": null,
            "lastname": null
        },
        {
            "id": 4,
            "name": "Bpost",
            "email": null,
            "admin": 0,
            "createdAt": "2024-03-27T17:16:40.000+00:00",
            "updatedAt": "2024-03-27T17:16:40.000+00:00",
            "deletedAt": null,
            "imageUrl": "https://www.adshot.io/wp-content/uploads/2023/03/bpost-logo.png",
            "vatNumber": "BE122323",
            "country": "BE",
            "zipcode": "1080",
            "street": "CURL POST",
            "streetNr": null,
            "city": null,
            "sector": "Post",
            "firstname": null,
            "lastname": null
        },
        {
            "id": 3,
            "name": "Nihility",
            "email": null,
            "admin": 0,
            "createdAt": "2024-03-27T17:16:40.000+00:00",
            "updatedAt": "2024-03-27T17:16:40.000+00:00",
            "deletedAt": null,
            "imageUrl": "https://i.imgur.com/iI5gPtL.png",
            "vatNumber": "BE12345678",
            "country": "BE",
            "zipcode": "1700",
            "street": "Dansaert 14",
            "streetNr": null,
            "city": null,
            "sector": "Cleaning Services",
            "firstname": null,
            "lastname": null
        }
    ],
    "meta": {
        "total": 6,
        "perPage": 5,
        "currentPage": 1,
        "lastPage": 2,
        "firstPage": 1,
        "firstPageUrl": "/?page=1",
        "lastPageUrl": "/?page=2",
        "nextPageUrl": "/?page=2",
        "previousPageUrl": null
    }
}