{
  "notifications": [
    {
      "id": 1,
      "accountId": 2,
      "type": "client",
      "text": "Your order has been shipped",
      "data": { "orderId": "i5kxvsj6rk4581fcbi36xj1d" },
      "from": 1,
      "received": 1,
      "seen": 1,
      "notificationTypeId": 4,
      "createdAt": "2024-03-27T15:32:47.000+00:00",
      "updatedAt": "2024-03-27T18:01:22.000+00:00",
      "deletedAt": null,
      "notificationType": { "name": "Order Update", "id": 4 },
      "fromAccount": { "name": "AuroraTech", "id": 2 }
    },
    {
      "id": 3,
      "accountId": 2,
      "type": "client",
      "text": "Your payment has been received",
      "data": { "orderId": "i5kxvsj6rk4581fcbi36xj1d" },
      "from": 1,
      "received": 1,
      "seen": 1,
      "notificationTypeId": 6,
      "createdAt": "2023-01-26T00:00:00.000+00:00",
      "updatedAt": "2024-03-27T18:01:22.000+00:00",
      "deletedAt": null,
      "notificationType": { "name": "Payment Update", "id": 6 },
      "fromAccount": { "name": "AuroraTech", "id": 2 }
    },
    {
      "id": 2,
      "accountId": 2,
      "type": "client",
      "text": "Your order is being processed",
      "data": { "orderId": "i5kxvsj6rk4581fcbi36xj1d" },
      "from": 1,
      "received": 1,
      "seen": 1,
      "notificationTypeId": 4,
      "createdAt": "2022-08-26T00:00:00.000+00:00",
      "updatedAt": "2024-03-27T18:01:22.000+00:00",
      "deletedAt": null,
      "notificationType": { "name": "Order Update", "id": 4 },
      "fromAccount": { "name": "AuroraTech", "id": 2 }
    },
    {
      "id": 4,
      "accountId": 2,
      "type": "client",
      "text": "Your order has been shipped",
      "data": { "orderId": "i5kxvsj6rk4581fcbi36xj1d" },
      "from": 1,
      "received": 1,
      "seen": 1,
      "notificationTypeId": 4,
      "createdAt": "2022-01-06T00:00:00.000+00:00",
      "updatedAt": "2024-03-27T18:01:22.000+00:00",
      "deletedAt": null,
      "notificationType": { "name": "Order Update", "id": 4 },
      "fromAccount": { "name": "AuroraTech", "id": 2 }
    },
    {
      "id": 5,
      "accountId": 2,
      "type": "client",
      "text": "Your order is being processed",
      "data": { "orderId": "i5kxvsj6rk4581fcbi36xj1d" },
      "from": 1,
      "received": 1,
      "seen": 1,
      "notificationTypeId": 4,
      "createdAt": "2022-01-06T00:00:00.000+00:00",
      "updatedAt": "2024-03-27T18:01:22.000+00:00",
      "deletedAt": null,
      "notificationType": { "name": "Order Update", "id": 4 },
      "fromAccount": { "name": "AuroraTech", "id": 2 }
    }
  ],
  "meta": {
    "total": 6,
    "perPage": 5,
    "currentPage": 1,
    "lastPage": 1,
    "firstPage": 1,
    "firstPageUrl": "/?page=1",
    "lastPageUrl": "/?page=1",
    "nextPageUrl": "/?page=1",
    "previousPageUrl": null
  }
}
